Get Spanish Origin-Destination Data • spanishoddata
…
Using the package

To run the code in this README we will use the following setup:

library(duckdb)
library(tidyverse)
theme_set(theme_minimal())
sf::sf_use_s2(FALSE)

Get metadata for the datasets as follows:

metadata = spod_get_metadata()
metadata

# A tibble: 9,442 × 6
   target_url           pub_ts              file_extension data_ym data_ymd  
   <chr>                <dttm>              <chr>          <date>  <date>    
 1 https://movilidad-o… 2024-07-16 11:22:03 gz             NA      2022-10-23
 2 https://movilidad-o… 2024-07-16 11:18:41 gz             NA      2022-10-22
 3 https://movilidad-o… 2024-07-16 11:15:06 gz             NA      2022-10-20
 4 https://movilidad-o… 2024-07-16 11:11:35 gz             NA      2022-10-18
 5 https://movilidad-o… 2024-07-16 11:07:58 gz             NA      2022-10-17
 6 https://movilidad-o… 2024-07-16 11:04:18 gz             NA      2022-10-12
 7 https://movilidad-o… 2024-07-16 11:00:20 gz             NA      2022-10-07
 8 https://movilidad-o… 2024-07-16 10:56:03 gz             NA      2022-08-07
 9 https://movilidad-o… 2024-07-16 10:51:05 gz             NA      2022-08-06
10 https://movilidad-o… 2024-07-16 10:46:24 gz             NA      2022-08-05
# ℹ 9,432 more rows
# ℹ 1 more variable: local_path <chr>
…
od_large = od_multi_list |>
  map(~ .x |>
        group_by(origen, destino) |>
        summarise(Trips = sum(viajes), .groups = "drop") |>
        filter(Trips > 500) |>
        collect()
  ) |>
  list_rbind() |>
  group_by(origen, destino) |>
  summarise(Trips = sum(Trips)) |>
  arrange(desc(Trips))
od_large

# A tibble: 37,023 × 3
# Groups:   origen [3,723]
   origen  destino    Trips
   <chr>   <chr>      <dbl>
 1 2807908 2807908 2441404.
 2 0801910 0801910 2112188.
 3 0801902 0801902 2013618.
 4 2807916 2807916 1821504.
 5 2807911 2807911 1785981.
 6 04902   04902   1690606.
 7 2807913 2807913 1504484.
 8 2807910 2807910 1299586.
 9 0704004 0704004 1287122.
10 28106   28106   1286058.
# ℹ 37,013 more rows
…
