…
``` r
library(tidyverse)
theme_set(theme_minimal())
sf::sf_use_s2(FALSE)
```

Get metadata for the datasets as follows (we are using version 2 data
covering years 2022 and onwards):

``` r
metadata <- spod_available_data(ver = 2) # for version 2 of the data
metadata
```

    # A tibble: 9,442 × 7
       target_url           pub_ts              file_extension data_ym data_ymd  
       <chr>                <dttm>              <chr>          <date>  <date>    
     1 https://movilidad-o… 2024-07-30 10:54:08 gz             NA      2022-10-23
     2 https://movilidad-o… 2024-07-30 10:51:07 gz             NA      2022-10-22
     3 https://movilidad-o… 2024-07-30 10:47:52 gz             NA      2022-10-20
     4 https://movilidad-o… 2024-07-30 10:14:55 gz             NA      2022-10-18
     5 https://movilidad-o… 2024-07-30 10:11:58 gz             NA      2022-10-17
     6 https://movilidad-o… 2024-07-30 10:09:03 gz             NA      2022-10-12
     7 https://movilidad-o… 2024-07-30 10:05:57 gz             NA      2022-10-07
     8 https://movilidad-o… 2024-07-30 10:02:12 gz             NA      2022-08-07
     9 https://movilidad-o… 2024-07-30 09:58:34 gz             NA      2022-08-06
    10 https://movilidad-o… 2024-07-30 09:54:30 gz             NA      2022-08-05
    # ℹ 9,432 more rows
    # ℹ 2 more variables: local_path <chr>, remote_file_size_mb <dbl>
…
We’ll use the same input data to pick-out the most important flows in
Spain, with a focus on longer trips for visualisation:

``` r
od_national_aggregated <- od_db |>
  group_by(id_origin, id_destination) |>
  summarise(Trips = sum(n_trips), .groups = "drop") |>
  filter(Trips > 500) |>
  collect() |>
  arrange(desc(Trips))
od_national_aggregated
```

    # A tibble: 96,404 × 3
       id_origin id_destination    Trips
       <fct>     <fct>             <dbl>
     1 2807908   2807908        2441404.
     2 0801910   0801910        2112188.
     3 0801902   0801902        2013618.
     4 2807916   2807916        1821504.
     5 2807911   2807911        1785981.
     6 04902     04902          1690606.
     7 2807913   2807913        1504484.
     8 2807910   2807910        1299586.
     9 0704004   0704004        1287122.
    10 28106     28106          1286058.
    # ℹ 96,394 more rows
…
