…
Let us count the total number of trips made between all locations on our selected day of `2022-04-06`:

```{r}
flows_by_district <- od |> 
  group_by(id_origin, id_destination) |> 
  summarise(n_trips = sum(n_trips, na.rm = TRUE)) |> 
  collect()

flows_by_district
```


```
# A tibble: 612,743 × 3
# Groups:   id_origin [3,850]
   id_origin id_destination n_trips
   <fct>     <fct>            <dbl>
 1 03055     0306507        2480.  
 2 03055     03074_AM        310.  
 3 03055     0307902           3.89
 4 03055     0309906         190.  
 5 03055     03107             6.23
 6 03055     0313903          18.0 
 7 03055     06070_AM          2.15
 8 03055     08145_AM          2.27
 9 03055     1102010           2.17
10 03055     30018             8.66
# ℹ 612,733 more rows
# ℹ Use `print(n = ...)` to see more rows
```
…
ca_distr <- district_centroids |>
  st_join(spain_for_join) |> 
  st_drop_geometry() |>
  filter(!is.na(ccaa.shortname.en)) |> 
  select(id, ca_name = ccaa.shortname.en)

ca_distr
```


```
# A tibble: 3,784 × 2
   id       ca_name       
   <chr>    <chr>         
 1 01001    Basque Country
 2 01002    Basque Country
 3 01004_AM Basque Country
 4 01009_AM Basque Country
 5 01010    Basque Country
 6 01017_AM Basque Country
 7 01028_AM Basque Country
 8 01036    Basque Country
 9 01043    Basque Country
10 01047_AM Basque Country
# ℹ 3,774 more rows
# ℹ Use `print(n = ...)` to see more rows
```
…
flows_by_ca
```

```
# A tibble: 349 × 3
   id_origin id_destination      n_trips
   <chr>     <chr>                 <dbl>
 1 Andalusia Andalusia         21991628.
 2 Andalusia Aragon                1405.
 3 Andalusia Asturias               777.
 4 Andalusia Balearic Islands      1568.
 5 Andalusia Basque Country         970.
 6 Andalusia Canary Islands        1853.
 7 Andalusia Cantabria              268.
 8 Andalusia Castile and León      3025.
 9 Andalusia Castile-La Mancha    11374.
10 Andalusia Catalonia             5679.
# ℹ 339 more rows
# ℹ Use `print(n = ...)` to see more rows
```
…
