…
The data for the specified dates will be automatically downloaded and cached in the `SPANISH_OD_DATA_DIR` directory. Existing files will not be re-downloaded. The resulting objects `od_dist` and `od_muni` are  `tbl_duckdb_connection`, `tbl_dbi`, `tbl_sql`, `tbl_lazy`, and `tbl`. That means that the data is not loaded into memory (as if you request more dates, e.g. a whole year, it would likely not fit into your computer's memory), but rather you have a table that is mapped to the donwloaded CSV files. You can manipulate it using `dplyr` functions such as `select()`, `filter()`, `mutate()`, `group_by()`, `summarise()`, etc. When you are done, you can `collect()` the table to get it in the R memory like so:

```{r}
library(dplyr)
od_mean_hourly_trips_over_the_4_days <- od_dist |>
  group_by(time_slot) |>
  summarise(
    mean_hourly_trips = mean(n_trips, na.rm = TRUE),
    .groups = "drop") |> 
  collect()
od_mean_hourly_trips_over_the_4_days
```

```
# A tibble: 24 × 2
   time_slot mean_hourly_trips
       <int>             <dbl>
 1        18              21.4
 2        10              19.3
 3         2              14.8
 4        15              19.8
 5        11              19.9
 6        16              19.6
 7        22              20.9
 8         0              18.6
 9        13              21.1
10        19              22.5
# ℹ 14 more rows
# ℹ Use `print(n = ...)` to see more rows
```
…
