…
```         
# A tibble: 39 × 4
   age   sex    income daily_mean_n_trips
   <fct> <fct>  <fct>               <dbl>
 1 NA    NA     <10              7002485.
 2 NA    NA     10-15           16551405.
 3 NA    NA     >15              2651481.
 4 0-25  NA     <10               539060.
 5 0-25  NA     10-15            1950892.
 6 0-25  NA     >15               401557.
 7 0-25  female <10              1484989.
 8 0-25  female 10-15            5357785.
 9 0-25  female >15              1764454.
10 0-25  male   <10              1558461.
# ℹ 29 more rows
# ℹ Use `print(n = ...)` to see more rows
```
…
