Making static flow maps • spanishoddata
…
3.2 Flows aggregation

3.2.1 Aggregate raw origin destination data by original ids

Let us count the total number of trips made between all locations on our selected day of 2022-04-06:

flows_by_district <- od |>
  group_by(id_origin, id_destination) |> 
  summarise(n_trips = sum(n_trips, na.rm = TRUE), .groups = "drop") |> 
  collect() |> 
  arrange(desc(id_origin), id_destination, n_trips)

flows_by_district

# A tibble: 402,711 × 3
   id_origin id_destination n_trips
   <fct>     <fct>            <dbl>
 1 31260_AM  01017_AM          7.15
 2 31260_AM  01043            13.7
 3 31260_AM  0105902          16.1
 4 31260_AM  2512005          12.2
 5 31260_AM  26002_AM          8
 6 31260_AM  26026_AM          4
 7 31260_AM  26036            38.3
 8 31260_AM  26061_AM         10.6
 9 31260_AM  26084             5.5
10 31260_AM  2608902         109.
# ℹ 402,701 more rows
# ℹ Use `print(n = ...)` to see more rows
…
Now we need to do a spatial join between districts and spain_for_join to find out which districts fall within which autonomous community. We use spain_for_join. If we used spain_for_vis, the districts in the Canary Islands would not match with the boundaries of the islands.

district_centroids <- districts |>
  st_centroid() |> 
  st_transform(crs = st_crs(spain_for_join))

ca_distr <- district_centroids |>
  st_join(spain_for_join) |> 
  st_drop_geometry() |>
  filter(!is.na(ccaa.shortname.en)) |> 
  select(id, ca_name = ccaa.shortname.en)

ca_distr

# A tibble: 3,784 × 2
   id       ca_name
   <chr>    <chr>
 1 01001    Basque Country
 2 01002    Basque Country
 3 01004_AM Basque Country
 4 01009_AM Basque Country
 5 01010    Basque Country
 6 01017_AM Basque Country
 7 01028_AM Basque Country
 8 01036    Basque Country
 9 01043    Basque Country
10 01047_AM Basque Country
# ℹ 3,774 more rows
# ℹ Use `print(n = ...)` to see more rows
…
flows_by_ca

# A tibble: 358 × 3
   o         d                     value
   <chr>     <chr>                 <dbl>
 1 Andalusia Andalusia         23681858.
 2 Andalusia Aragon                 643.
 3 Andalusia Asturias               373.
 4 Andalusia Balearic Islands       931.
 5 Andalusia Basque Country         769.
 6 Andalusia Canary Islands        1899.
 7 Andalusia Cantabria              153.
 8 Andalusia Castile and León      3114.
 9 Andalusia Castile-La Mancha    13655.
10 Andalusia Catalonia             5453.
# ℹ 348 more rows
# ℹ Use `print(n = ...)` to see more rows
…
