Quicky get daily data • spanishoddata
…
glimpse(od_1000)

glimpse(od_1000)
Rows: 8,524
Columns: 5
$ date                  <date> 2022-01-01, 2022-01-01, 2022-01-01, 2022…
$ id_origin             <chr> "01001", "01002", "01002", "01002", "0100…
$ id_destination        <chr> "01059", "01036", "01002", "01054_AM", "0…
$ n_trips               <int> 2142, 1215, 8899, 1105, 2250, 4621, 1992,…
$ trips_total_length_km <int> 27130, 13743, 26700, 10603, 12228, 69999,…

od_1000

# A tibble: 8,524 × 5
   date       id_origin id_destination n_trips trips_total_length_km
   <date>     <chr>     <chr>            <int>                 <int>
 1 2022-01-01 01001     01059             2142                 27130
 2 2022-01-01 01002     01036             1215                 13743
 3 2022-01-01 01002     01002             8899                 26700
 4 2022-01-01 01002     01054_AM          1105                 10603
 5 2022-01-01 01002     01010             2250                 12228
 6 2022-01-01 01009_AM  01059             4621                 69999
 7 2022-01-01 01009_AM  01009_AM          1992                 16395
 8 2022-01-01 01009_AM  01051             2680                 18554
 9 2022-01-01 01010     01002             2147                 11578
10 2022-01-01 01017_AM  01017_AM          1847                 12695
# ℹ 8,514 more rows
# ℹ Use `print(n = ...)` to see more rows
…
glimpse(od_long)

Rows: 247,208
Columns: 5
$ date                  <date> 2022-01-01, 2022-01-01, 2022-01-01, 2022…
$ id_origin             <chr> "08015", "08015", "08015", "08015", "0801…
$ id_destination        <chr> "08285", "17902_AM", "43014", "08007", "0…
$ n_trips               <int> 5, 1, 5, 165, 210, 111, 1486, 39, 52, 166…
$ trips_total_length_km <int> 339, 161, 924, 5052, 2955, 2453, 29630, 1…

od_long

# A tibble: 247,208 × 5
   date       id_origin id_destination n_trips trips_total_length_km
   <date>     <chr>     <chr>            <int>                 <int>
 1 2022-01-01 08015     08285                5                   339
 2 2022-01-01 08015     17902_AM             1                   161
 3 2022-01-01 08015     43014                5                   924
 4 2022-01-01 08015     08007              165                  5052
 5 2022-01-01 08015     08030              210                  2955
 6 2022-01-01 08015     08051              111                  2453
 7 2022-01-01 08015     08121             1486                 29630
 8 2022-01-01 08015     08122_AM            39                  1886
 9 2022-01-01 08015     08300_AM            52                  1301
10 2022-01-01 08015     08902              166                  2042
# ℹ 247,198 more rows
# ℹ Use `print(n = ...)` to see more rows
…
glimpse(flows_from_Madrid)

Rows: 2,232
Columns: 5
$ date                  <date> 2022-01-01, 2022-01-01, 2022-01-01, 2022…
$ id_origin             <chr> "28073", "28073", "28073", "28073", "2807…
$ id_destination        <chr> "28007", "28066", "28079", "45081", "FR10…
$ n_trips               <int> 1239, 1505, 3730, 237, 2, 10, 11, 5, 9, 2…
$ trips_total_length_km <int> 11120, 7268, 75798, 3385, 82, 296, 1036, …

# A tibble: 2,232 × 5
   date       id_origin id_destination n_trips trips_total_length_km
   <date>     <chr>     <chr>            <int>                 <int>
 1 2022-01-01 28073     28007             1239                 11120
 2 2022-01-01 28073     28066             1505                  7268
 3 2022-01-01 28073     28079             3730                 75798
 4 2022-01-01 28073     45081              237                  3385
 5 2022-01-01 28073     FR102                2                    82
 6 2022-01-01 28073     28177               10                   296
 7 2022-01-01 28073     45165               11                  1036
 8 2022-01-01 28073     46011_AM             5                  1621
 9 2022-01-01 28073     21076_AM             9                  4102
10 2022-01-01 28073     46120_AM             2                   631
# ℹ 2,222 more rows
# ℹ Use `print(n = ...)` to see more rows
…
