…
``` r
library(dplyr)
od_mean_hourly_trips_over_the_4_days <- od_dist |>
  group_by(hour) |>
  summarise(
    mean_hourly_trips = mean(n_trips, na.rm = TRUE),
    .groups = "drop"
  ) |>
  collect()
od_mean_hourly_trips_over_the_4_days
```

    # A tibble: 24 × 2
       hour mean_hourly_trips
           <int>             <dbl>
     1        18              21.4
     2        10              19.3
     3         2              14.8
     4        15              19.8
     5        11              19.9
     6        16              19.6
     7        22              20.9
     8         0              18.6
     9        13              21.1
    10        19              22.5
    # ℹ 14 more rows
    # ℹ Use `print(n = ...)` to see more rows
…
