Codebook and cookbook for v1 (2020-2021) Spanish mobility data • spanishoddata
…
Working with the data

The resulting objects od_dist and od_muni are of class tbl_duckdb_connection1. Basically, you can treat these as regular data.frames or tibbles. One important difference is that the data is not actually loaded into memory, because if you requested more dates, e.g. a whole month or a year, all that data would most likely not fit into your computer’s memory. A tbl_duckdb_connection is mapped to the downloaded CSV files that are cached on disk and the data is only loaded in small chunks as needed at the time of computation. You can manipulate od_dist and od_muni using dplyr functions such as select(), filter(), mutate(), group_by(), summarise(), etc. In the end of any sequence of commands you will need to add collect() to execute the whole chain of data manipulations and load the results into memory in an R data.frame/tibble like so:

library(dplyr)
od_mean_hourly_trips_over_the_4_days <- od_dist |>
  group_by(time_slot) |>
  summarise(
    mean_hourly_trips = mean(n_trips, na.rm = TRUE),
    .groups = "drop") |> 
  collect()
od_mean_hourly_trips_over_the_4_days

# A tibble: 24 × 2
   time_slot mean_hourly_trips
       <int>             <dbl>
 1        18              21.4
 2        10              19.3
 3         2              14.8
 4        15              19.8
 5        11              19.9
 6        16              19.6
 7        22              20.9
 8         0              18.6
 9        13              21.1
10        19              22.5
# ℹ 14 more rows
# ℹ Use `print(n = ...)` to see more rows
…
